# MadX expression                            LSA name                                     sequence (optional)
table(twiss,BR1.BWSH4L1,BETX)                PSBBWS_OPTICS/Twiss#br1_bwsh4l1_beta          psb1
table(twiss,BR1.BWSH4L1,DX)*beam->beta       PSBBWS_OPTICS/Twiss#br1_bwsh4l1_disp          psb1
table(twiss,BR2.BWSH4L1,BETX)                PSBBWS_OPTICS/Twiss#br2_bwsh4l1_beta          psb2
table(twiss,BR2.BWSH4L1,DX)*beam->beta       PSBBWS_OPTICS/Twiss#br2_bwsh4l1_disp          psb2
table(twiss,BR3.BWSH4L1,BETX)                PSBBWS_OPTICS/Twiss#br3_bwsh4l1_beta          psb3
table(twiss,BR3.BWSH4L1,DX)*beam->beta       PSBBWS_OPTICS/Twiss#br3_bwsh4l1_disp          psb3
table(twiss,BR4.BWSH4L1,BETX)                PSBBWS_OPTICS/Twiss#br4_bwsh4l1_beta          psb4
table(twiss,BR4.BWSH4L1,DX)*beam->beta       PSBBWS_OPTICS/Twiss#br4_bwsh4l1_disp          psb4
table(twiss,BR1.BWSV11L1,BETY)               PSBBWS_OPTICS/Twiss#br1_bwsv11l1_beta         psb1
table(twiss,BR1.BWSV11L1,DY)*beam->beta      PSBBWS_OPTICS/Twiss#br1_bwsv11l1_disp         psb1
table(twiss,BR2.BWSV11L1,BETY)               PSBBWS_OPTICS/Twiss#br2_bwsv11l1_beta         psb2
table(twiss,BR2.BWSV11L1,DY)*beam->beta      PSBBWS_OPTICS/Twiss#br2_bwsv11l1_disp         psb2
table(twiss,BR3.BWSV11L1,BETY)               PSBBWS_OPTICS/Twiss#br3_bwsv11l1_beta         psb3
table(twiss,BR3.BWSV11L1,DY)*beam->beta      PSBBWS_OPTICS/Twiss#br3_bwsv11l1_disp         psb3
table(twiss,BR4.BWSV11L1,BETY)               PSBBWS_OPTICS/Twiss#br4_bwsv11l1_beta         psb4
table(twiss,BR4.BWSV11L1,DY)*beam->beta      PSBBWS_OPTICS/Twiss#br4_bwsv11l1_disp         psb4
table(summ,gammatr)                          PSBBEAM1/GAMMATR#value                        psb1
table(summ,gammatr)                          PSBBEAM2/GAMMATR#value                        psb2
table(summ,gammatr)                          PSBBEAM3/GAMMATR#value                        psb3
table(summ,gammatr)                          PSBBEAM4/GAMMATR#value                        psb4